/home/danilo/.CLion12/system/cmake/generated/ef8f0742/ef8f0742/Debug/t2_inf1019 ./resources/nossoInput5.txt



========= Best-fit! =============

Numero de processos: 4


->Processo [ 1 ] alocado (usa: 7 MB)


=:= Estado da Memória =:=
		[   1 ][   1 ][   1 ][   1 ][   1 ][   1 ][   1 ][ ___ ]
		[ ___ ][ ___ ][ ___ ][ ___ ]
		[ ___ ][ ___ ]
		[ ___ ]
		[ ___ ]

->Processo [1] iniciado!
END:	 [1][0] `exec 5` Terminou!

 Processo `Atual` Foi para IO!

->Processo [ 2 ] alocado (usa: 5 MB)


=:= Estado da Memória =:=
		[   2 ][   2 ][   2 ][   2 ][   2 ][ ___ ][ ___ ][ ___ ]
		[ ___ ][ ___ ][ ___ ][ ___ ]
		[ ___ ][ ___ ]
		[ ___ ]
		[ ___ ]

->Processo [2] iniciado!
END:	 [1][1] `io 5` Terminou!

		[2][0] `exec 12` passou 10!

->Processo [ 3 ] alocado (usa: 1 MB)
->Proecsso [2] pausado!


=:= Estado da Memória =:=
		[   2 ][   2 ][   2 ][   2 ][   2 ][ ___ ][ ___ ][ ___ ]
		[ ___ ][ ___ ][ ___ ][ ___ ]
		[ ___ ][ ___ ]
		[   3 ]
		[ ___ ]

->Processo [3] iniciado!


(t mod 10 == 0) is true (limite de tempo := 10)

END:	 [3][0] `exec 10` Terminou!

 Processo `Atual` Foi para IO!

->Processo [ 4 ] alocado (usa: 2 MB)


=:= Estado da Memória =:=
		[   2 ][   2 ][   2 ][   2 ][   2 ][ ___ ][ ___ ][ ___ ]
		[ ___ ][ ___ ][ ___ ][ ___ ]
		[   4 ][   4 ]
		[   3 ]
		[ ___ ]

->Processo [4] iniciado!
END:	 [3][1] `io 2` Terminou!
END:	 [4][0] `exec 2` Terminou!

 Processo `Atual` Foi para IO!
->Processo [2] iniciado!
END:	 [2][0] `exec 12` Terminou!

 Processo `Atual` Foi para IO!

->Processo [ 1 ] alocado (usa: 7 MB)


=:= Estado da Memória =:=
		[   1 ][   1 ][   1 ][   1 ][   1 ][   1 ][   1 ][ ___ ]
		[ ___ ][ ___ ][ ___ ][ ___ ]
		[   4 ][   4 ]
		[   3 ]
		[ ___ ]

->Processo [1] iniciado!
END:	 [1][2] `exec 8` Terminou!

 Tempo total: 37 [Tempo parado: 19, Tempo de IO: 5, Tempo de CPU:13 ]
 Processo [1] Terminou!!

->Processo [3] iniciado!
END:	 [3][2] `exec 3` Terminou!
END:	 [4][1] `io 13` Terminou!

 Processo `Atual` Foi para IO!
->Processo [4] iniciado!
END:	 [2][1] `io 12` Terminou!
END:	 [3][3] `io 10` Terminou!

		[4][2] `exec 13` passou 10!

->Processo [ 2 ] alocado (usa: 5 MB)
->Proecsso [4] pausado!


=:= Estado da Memória =:=
		[   2 ][   2 ][   2 ][   2 ][   2 ][ ___ ][ ___ ][ ___ ]
		[ ___ ][ ___ ][ ___ ][ ___ ]
		[   4 ][   4 ]
		[   3 ]
		[ ___ ]

->Processo [2] iniciado!


(t mod 10 == 0) is true (limite de tempo := 10)

END:	 [2][2] `exec 10` Terminou!

 Tempo total: 60 [Tempo parado: 26, Tempo de IO: 12, Tempo de CPU:22 ]
 Processo [2] Terminou!!

->Processo [3] iniciado!
END:	 [3][4] `exec 3` Terminou!

 Tempo total: 63 [Tempo parado: 35, Tempo de IO: 12, Tempo de CPU:16 ]
 Processo [3] Terminou!!

->Processo [4] iniciado!
END:	 [4][2] `exec 13` Terminou!

 Tempo total: 66 [Tempo parado: 38, Tempo de IO: 13, Tempo de CPU:15 ]
 Processo [4] Terminou!!

Tempo total: 66
========= First-fit! =============

Numero de processos: 4


->Processo [ 1 ] alocado (usa: 7 MB)


=:= Estado da Memória =:=
		[   1 ][   1 ][   1 ][   1 ][   1 ][   1 ][   1 ][ ___ ]
		[ ___ ][ ___ ][ ___ ][ ___ ]
		[ ___ ][ ___ ]
		[ ___ ]
		[ ___ ]

->Processo [1] iniciado!
END:	 [1][0] `exec 5` Terminou!

 Processo `Atual` Foi para IO!

->Processo [ 2 ] alocado (usa: 5 MB)


=:= Estado da Memória =:=
		[   2 ][   2 ][   2 ][   2 ][   2 ][ ___ ][ ___ ][ ___ ]
		[ ___ ][ ___ ][ ___ ][ ___ ]
		[ ___ ][ ___ ]
		[ ___ ]
		[ ___ ]

->Processo [2] iniciado!
END:	 [1][1] `io 5` Terminou!

		[2][0] `exec 12` passou 10!

->Processo [ 3 ] alocado (usa: 1 MB)
->Proecsso [2] pausado!


=:= Estado da Memória =:=
		[   2 ][   2 ][   2 ][   2 ][   2 ][ ___ ][ ___ ][ ___ ]
		[   3 ][ ___ ][ ___ ][ ___ ]
		[ ___ ][ ___ ]
		[ ___ ]
		[ ___ ]

->Processo [3] iniciado!


(t mod 10 == 0) is true (limite de tempo := 10)

END:	 [3][0] `exec 10` Terminou!

 Processo `Atual` Foi para IO!

->Processo [ 4 ] alocado (usa: 2 MB)


=:= Estado da Memória =:=
		[   2 ][   2 ][   2 ][   2 ][   2 ][ ___ ][ ___ ][ ___ ]
		[   3 ][ ___ ][ ___ ][ ___ ]
		[   4 ][   4 ]
		[ ___ ]
		[ ___ ]

->Processo [4] iniciado!
END:	 [3][1] `io 2` Terminou!
END:	 [4][0] `exec 2` Terminou!

 Processo `Atual` Foi para IO!
->Processo [2] iniciado!
END:	 [2][0] `exec 12` Terminou!

 Processo `Atual` Foi para IO!

->Processo [ 1 ] alocado (usa: 7 MB)


=:= Estado da Memória =:=
		[   1 ][   1 ][   1 ][   1 ][   1 ][   1 ][   1 ][ ___ ]
		[   3 ][ ___ ][ ___ ][ ___ ]
		[   4 ][   4 ]
		[ ___ ]
		[ ___ ]

->Processo [1] iniciado!
END:	 [1][2] `exec 8` Terminou!

 Tempo total: 37 [Tempo parado: 19, Tempo de IO: 5, Tempo de CPU:13 ]
 Processo [1] Terminou!!

->Processo [3] iniciado!
END:	 [3][2] `exec 3` Terminou!
END:	 [4][1] `io 13` Terminou!

 Processo `Atual` Foi para IO!
->Processo [4] iniciado!
END:	 [2][1] `io 12` Terminou!
END:	 [3][3] `io 10` Terminou!

		[4][2] `exec 13` passou 10!

->Processo [ 2 ] alocado (usa: 5 MB)
->Proecsso [4] pausado!


=:= Estado da Memória =:=
		[   2 ][   2 ][   2 ][   2 ][   2 ][ ___ ][ ___ ][ ___ ]
		[   3 ][ ___ ][ ___ ][ ___ ]
		[   4 ][   4 ]
		[ ___ ]
		[ ___ ]

->Processo [2] iniciado!


(t mod 10 == 0) is true (limite de tempo := 10)

END:	 [2][2] `exec 10` Terminou!

 Tempo total: 60 [Tempo parado: 26, Tempo de IO: 12, Tempo de CPU:22 ]
 Processo [2] Terminou!!

->Processo [3] iniciado!
END:	 [3][4] `exec 3` Terminou!

 Tempo total: 63 [Tempo parado: 35, Tempo de IO: 12, Tempo de CPU:16 ]
 Processo [3] Terminou!!

->Processo [4] iniciado!
END:	 [4][2] `exec 13` Terminou!

 Tempo total: 66 [Tempo parado: 38, Tempo de IO: 13, Tempo de CPU:15 ]
 Processo [4] Terminou!!

Tempo total: 66
========= Next-fit! =============

Numero de processos: 4


->Processo [ 1 ] alocado (usa: 7 MB)


=:= Estado da Memória =:=
		[   1 ][   1 ][   1 ][   1 ][   1 ][   1 ][   1 ][ ___ ]
		[ ___ ][ ___ ][ ___ ][ ___ ]
		[ ___ ][ ___ ]
		[ ___ ]
		[ ___ ]

->Processo [1] iniciado!
END:	 [1][0] `exec 5` Terminou!

 Processo `Atual` Foi para IO!

->Processo [ 2 ] alocado (usa: 5 MB)


=:= Estado da Memória =:=
		[   2 ][   2 ][   2 ][   2 ][   2 ][ ___ ][ ___ ][ ___ ]
		[ ___ ][ ___ ][ ___ ][ ___ ]
		[ ___ ][ ___ ]
		[ ___ ]
		[ ___ ]

->Processo [2] iniciado!
END:	 [1][1] `io 5` Terminou!

		[2][0] `exec 12` passou 10!

->Processo [ 3 ] alocado (usa: 1 MB)
->Proecsso [2] pausado!


=:= Estado da Memória =:=
		[   2 ][   2 ][   2 ][   2 ][   2 ][ ___ ][ ___ ][ ___ ]
		[   3 ][ ___ ][ ___ ][ ___ ]
		[ ___ ][ ___ ]
		[ ___ ]
		[ ___ ]

->Processo [3] iniciado!


(t mod 10 == 0) is true (limite de tempo := 10)

END:	 [3][0] `exec 10` Terminou!

 Processo `Atual` Foi para IO!

->Processo [ 4 ] alocado (usa: 2 MB)


=:= Estado da Memória =:=
		[   2 ][   2 ][   2 ][   2 ][   2 ][ ___ ][ ___ ][ ___ ]
		[   3 ][ ___ ][ ___ ][ ___ ]
		[   4 ][   4 ]
		[ ___ ]
		[ ___ ]

->Processo [4] iniciado!
END:	 [3][1] `io 2` Terminou!
END:	 [4][0] `exec 2` Terminou!

 Processo `Atual` Foi para IO!
->Processo [2] iniciado!
END:	 [2][0] `exec 12` Terminou!

 Processo `Atual` Foi para IO!

->Processo [ 1 ] alocado (usa: 7 MB)


=:= Estado da Memória =:=
		[   1 ][   1 ][   1 ][   1 ][   1 ][   1 ][   1 ][ ___ ]
		[   3 ][ ___ ][ ___ ][ ___ ]
		[   4 ][   4 ]
		[ ___ ]
		[ ___ ]

->Processo [1] iniciado!
END:	 [1][2] `exec 8` Terminou!

 Tempo total: 37 [Tempo parado: 19, Tempo de IO: 5, Tempo de CPU:13 ]
 Processo [1] Terminou!!

->Processo [3] iniciado!
END:	 [3][2] `exec 3` Terminou!
END:	 [4][1] `io 13` Terminou!

 Processo `Atual` Foi para IO!
->Processo [4] iniciado!
END:	 [2][1] `io 12` Terminou!
END:	 [3][3] `io 10` Terminou!

		[4][2] `exec 13` passou 10!

->Processo [ 2 ] alocado (usa: 5 MB)
->Proecsso [4] pausado!


=:= Estado da Memória =:=
		[   2 ][   2 ][   2 ][   2 ][   2 ][ ___ ][ ___ ][ ___ ]
		[   3 ][ ___ ][ ___ ][ ___ ]
		[   4 ][   4 ]
		[ ___ ]
		[ ___ ]

->Processo [2] iniciado!


(t mod 10 == 0) is true (limite de tempo := 10)

END:	 [2][2] `exec 10` Terminou!

 Tempo total: 60 [Tempo parado: 26, Tempo de IO: 12, Tempo de CPU:22 ]
 Processo [2] Terminou!!

->Processo [3] iniciado!
END:	 [3][4] `exec 3` Terminou!

 Tempo total: 63 [Tempo parado: 35, Tempo de IO: 12, Tempo de CPU:16 ]
 Processo [3] Terminou!!

->Processo [4] iniciado!
END:	 [4][2] `exec 13` Terminou!

 Tempo total: 66 [Tempo parado: 38, Tempo de IO: 13, Tempo de CPU:15 ]
 Processo [4] Terminou!!

Tempo total: 66
========= Worst-fit! =============

Numero de processos: 4


->Processo [ 1 ] alocado (usa: 7 MB)


=:= Estado da Memória =:=
		[   1 ][   1 ][   1 ][   1 ][   1 ][   1 ][   1 ][ ___ ]
		[ ___ ][ ___ ][ ___ ][ ___ ]
		[ ___ ][ ___ ]
		[ ___ ]
		[ ___ ]

->Processo [1] iniciado!
END:	 [1][0] `exec 5` Terminou!

 Processo `Atual` Foi para IO!

->Processo [ 2 ] alocado (usa: 5 MB)


=:= Estado da Memória =:=
		[   2 ][   2 ][   2 ][   2 ][   2 ][ ___ ][ ___ ][ ___ ]
		[ ___ ][ ___ ][ ___ ][ ___ ]
		[ ___ ][ ___ ]
		[ ___ ]
		[ ___ ]

->Processo [2] iniciado!
END:	 [1][1] `io 5` Terminou!

		[2][0] `exec 12` passou 10!

->Processo [ 3 ] alocado (usa: 1 MB)
->Proecsso [2] pausado!


=:= Estado da Memória =:=
		[   2 ][   2 ][   2 ][   2 ][   2 ][ ___ ][ ___ ][ ___ ]
		[   3 ][ ___ ][ ___ ][ ___ ]
		[ ___ ][ ___ ]
		[ ___ ]
		[ ___ ]

->Processo [3] iniciado!


(t mod 10 == 0) is true (limite de tempo := 10)

END:	 [3][0] `exec 10` Terminou!

 Processo `Atual` Foi para IO!

->Processo [ 4 ] alocado (usa: 2 MB)


=:= Estado da Memória =:=
		[   2 ][   2 ][   2 ][   2 ][   2 ][ ___ ][ ___ ][ ___ ]
		[   3 ][ ___ ][ ___ ][ ___ ]
		[   4 ][   4 ]
		[ ___ ]
		[ ___ ]

->Processo [4] iniciado!
END:	 [3][1] `io 2` Terminou!
END:	 [4][0] `exec 2` Terminou!

 Processo `Atual` Foi para IO!
->Processo [2] iniciado!
END:	 [2][0] `exec 12` Terminou!

 Processo `Atual` Foi para IO!

->Processo [ 1 ] alocado (usa: 7 MB)


=:= Estado da Memória =:=
		[   1 ][   1 ][   1 ][   1 ][   1 ][   1 ][   1 ][ ___ ]
		[   3 ][ ___ ][ ___ ][ ___ ]
		[   4 ][   4 ]
		[ ___ ]
		[ ___ ]

->Processo [1] iniciado!
END:	 [1][2] `exec 8` Terminou!

 Tempo total: 37 [Tempo parado: 19, Tempo de IO: 5, Tempo de CPU:13 ]
 Processo [1] Terminou!!

->Processo [3] iniciado!
END:	 [3][2] `exec 3` Terminou!
END:	 [4][1] `io 13` Terminou!

 Processo `Atual` Foi para IO!
->Processo [4] iniciado!
END:	 [2][1] `io 12` Terminou!
END:	 [3][3] `io 10` Terminou!

		[4][2] `exec 13` passou 10!

->Processo [ 2 ] alocado (usa: 5 MB)
->Proecsso [4] pausado!


=:= Estado da Memória =:=
		[   2 ][   2 ][   2 ][   2 ][   2 ][ ___ ][ ___ ][ ___ ]
		[   3 ][ ___ ][ ___ ][ ___ ]
		[   4 ][   4 ]
		[ ___ ]
		[ ___ ]

->Processo [2] iniciado!


(t mod 10 == 0) is true (limite de tempo := 10)

END:	 [2][2] `exec 10` Terminou!

 Tempo total: 60 [Tempo parado: 26, Tempo de IO: 12, Tempo de CPU:22 ]
 Processo [2] Terminou!!

->Processo [3] iniciado!
END:	 [3][4] `exec 3` Terminou!

 Tempo total: 63 [Tempo parado: 35, Tempo de IO: 12, Tempo de CPU:16 ]
 Processo [3] Terminou!!

->Processo [4] iniciado!
END:	 [4][2] `exec 13` Terminou!

 Tempo total: 66 [Tempo parado: 38, Tempo de IO: 13, Tempo de CPU:15 ]
 Processo [4] Terminou!!

Tempo total: 66


Process finished with exit code 0
